,year,entropies
0,2000,-0.0
1,2000,0.222284830685688
2,2000,-0.0
3,2000,-0.0
4,2000,-0.0
5,2000,-0.0
6,2000,-0.0
7,2000,-0.0
8,2000,-0.0
9,2000,0.2580186686648155
10,2000,-0.0
11,2000,-0.0
12,2000,-0.0
13,2000,-0.0
14,2000,-0.0
15,2000,-0.0
16,2000,-0.0
17,2000,1.2516291673878228
18,2000,-0.0
19,2000,-0.0
20,2000,-0.0
21,2000,-0.0
22,2000,-0.0
23,2000,-0.0
24,2001,-0.0
25,2001,-0.0
26,2001,-0.0
27,2001,-0.0
28,2001,-0.0
29,2001,-0.0
30,2001,-0.0
31,2001,-0.0
32,2001,-0.0
33,2001,-0.0
34,2001,-0.0
35,2001,-0.0
36,2001,-0.0
37,2001,-0.0
38,2001,-0.0
39,2001,-0.0
40,2001,-0.0
41,2001,-0.0
42,2001,-0.0
43,2001,-0.0
44,2001,-0.0
45,2001,-0.0
46,2001,-0.0
47,2001,-0.0
48,2001,-0.0
49,2001,-0.0
50,2001,0.2974722489192896
51,2002,-0.0
52,2002,-0.0
53,2002,-0.0
54,2002,-0.0
55,2002,-0.0
56,2002,-0.0
57,2002,-0.0
58,2002,-0.0
59,2002,-0.0
60,2002,-0.0
61,2002,-0.0
62,2002,-0.0
63,2002,-0.0
64,2002,0.9182958340544896
65,2002,-0.0
66,2002,-0.0
67,2002,-0.0
68,2002,-0.0
69,2002,-0.0
70,2002,-0.0
71,2002,-0.0
72,2002,-0.0
73,2002,-0.0
74,2002,-0.0
75,2002,-0.0
76,2002,-0.0
77,2002,-0.0
78,2002,-0.0
79,2002,-0.0
80,2002,-0.0
81,2002,-0.0
82,2002,-0.0
83,2002,-0.0
84,2003,-0.0
85,2003,-0.0
86,2003,-0.0
87,2003,-0.0
88,2003,-0.0
89,2003,-0.0
90,2003,-0.0
91,2003,-0.0
92,2003,-0.0
93,2003,-0.0
94,2003,0.9852281360342515
95,2003,-0.0
96,2003,0.5032583347756457
97,2003,1.584962500721156
98,2003,-0.0
99,2003,-0.0
100,2003,-0.0
101,2003,-0.0
102,2003,-0.0
103,2003,-0.0
104,2004,1.0
105,2004,-0.0
106,2004,-0.0
107,2004,-0.0
108,2004,0.26676498780302604
109,2004,-0.0
110,2004,-0.0
111,2004,-0.0
112,2004,-0.0
113,2004,-0.0
114,2004,-0.0
115,2004,-0.0
116,2004,-0.0
117,2004,-0.0
118,2004,-0.0
119,2004,-0.0
120,2004,-0.0
121,2004,-0.0
122,2004,-0.0
123,2004,-0.0
124,2004,-0.0
125,2004,-0.0
126,2004,-0.0
127,2004,-0.0
128,2004,-0.0
129,2004,-0.0
130,2004,1.0
131,2004,-0.0
132,2004,-0.0
133,2004,-0.0
134,2004,-0.0
135,2004,-0.0
136,2005,-0.0
137,2005,-0.0
138,2005,1.0
139,2005,-0.0
140,2005,-0.0
141,2005,-0.0
142,2005,-0.0
143,2005,-0.0
144,2005,-0.0
145,2005,-0.0
146,2005,1.061278124459133
147,2005,-0.0
148,2005,-0.0
149,2005,-0.0
150,2005,-0.0
151,2005,-0.0
152,2005,-0.0
153,2005,-0.0
154,2005,-0.0
155,2005,-0.0
156,2005,0.7219280948873623
157,2005,-0.0
158,2005,-0.0
159,2005,-0.0
160,2005,-0.0
161,2005,-0.0
162,2005,-0.0
163,2005,-0.0
164,2005,-0.0
165,2005,-0.0
166,2005,1.5
167,2005,-0.0
168,2005,-0.0
169,2005,-0.0
170,2005,-0.0
171,2005,-0.0
172,2005,-0.0
173,2005,-0.0
174,2005,-0.0
175,2005,-0.0
176,2005,-0.0
177,2005,-0.0
178,2005,-0.0
179,2005,-0.0
180,2005,-0.0
181,2005,-0.0
182,2005,-0.0
183,2005,-0.0
184,2005,-0.0
185,2006,-0.0
186,2006,-0.0
187,2006,-0.0
188,2006,-0.0
189,2006,-0.0
190,2006,0.5229784263810124
191,2006,-0.0
192,2006,-0.0
193,2006,-0.0
194,2006,-0.0
195,2006,-0.0
196,2006,-0.0
197,2006,-0.0
198,2006,-0.0
199,2006,-0.0
200,2006,-0.0
201,2006,-0.0
202,2006,-0.0
203,2006,-0.0
204,2006,-0.0
205,2006,-0.0
206,2006,-0.0
207,2006,-0.0
208,2006,-0.0
209,2006,-0.0
210,2006,-0.0
211,2006,-0.0
212,2006,-0.0
213,2006,-0.0
214,2006,-0.0
215,2006,-0.0
216,2006,-0.0
217,2006,-0.0
218,2006,-0.0
219,2006,-0.0
220,2006,-0.0
221,2006,-0.0
222,2006,1.2987949406953985
223,2006,-0.0
224,2006,-0.0
225,2006,-0.0
226,2007,-0.0
227,2007,-0.0
228,2007,0.5435644431995964
229,2007,-0.0
230,2007,-0.0
231,2007,-0.0
232,2007,-0.0
233,2007,-0.0
234,2007,-0.0
235,2007,-0.0
236,2007,-0.0
237,2007,-0.0
238,2007,-0.0
239,2007,-0.0
240,2007,-0.0
241,2007,-0.0
242,2007,-0.0
243,2007,-0.0
244,2007,-0.0
245,2007,-0.0
246,2007,-0.0
247,2007,-0.0
248,2007,-0.0
249,2007,-0.0
250,2007,-0.0
251,2007,-0.0
252,2007,-0.0
253,2007,-0.0
254,2007,-0.0
255,2007,-0.0
256,2007,-0.0
257,2007,-0.0
258,2007,-0.0
259,2007,-0.0
260,2007,-0.0
261,2007,-0.0
262,2007,0.9744894033980523
263,2007,-0.0
264,2007,-0.0
265,2007,-0.0
266,2007,-0.0
267,2007,0.43275015878875406
268,2007,0.5435644431995964
269,2007,-0.0
270,2007,-0.0
271,2007,-0.0
272,2007,1.0
273,2007,-0.0
274,2007,-0.0
275,2007,-0.0
276,2007,-0.0
277,2007,-0.0
278,2007,-0.0
279,2007,-0.0
280,2007,-0.0
281,2008,-0.0
282,2008,-0.0
283,2008,-0.0
284,2008,0.12068101401352381
285,2008,-0.0
286,2008,-0.0
287,2008,-0.0
288,2008,-0.0
289,2008,-0.0
290,2008,-0.0
291,2008,-0.0
292,2008,-0.0
293,2008,-0.0
294,2008,-0.0
295,2008,-0.0
296,2008,-0.0
297,2008,-0.0
298,2008,-0.0
299,2008,-0.0
300,2008,-0.0
301,2008,-0.0
302,2008,-0.0
303,2008,-0.0
304,2008,-0.0
305,2008,-0.0
306,2008,-0.0
307,2008,-0.0
308,2008,-0.0
309,2008,-0.0
310,2008,-0.0
311,2008,-0.0
312,2008,-0.0
313,2008,-0.0
314,2008,-0.0
315,2008,-0.0
316,2008,-0.0
317,2008,-0.0
318,2008,-0.0
319,2008,-0.0
320,2008,1.0
321,2008,-0.0
322,2008,-0.0
323,2008,-0.0
324,2008,-0.0
325,2008,-0.0
326,2008,-0.0
327,2008,-0.0
328,2008,-0.0
329,2008,-0.0
330,2008,-0.0
331,2008,-0.0
332,2008,-0.0
333,2008,-0.0
334,2008,-0.0
335,2008,-0.0
336,2008,-0.0
337,2008,-0.0
338,2008,-0.0
339,2008,0.9182958340544896
340,2008,-0.0
341,2008,-0.0
342,2008,-0.0
343,2009,-0.0
344,2009,-0.0
345,2009,-0.0
346,2009,-0.0
347,2009,0.1792560669283215
348,2009,-0.0
349,2009,-0.0
350,2009,-0.0
351,2009,-0.0
352,2009,-0.0
353,2009,-0.0
354,2009,-0.0
355,2009,-0.0
356,2009,-0.0
357,2009,-0.0
358,2009,-0.0
359,2009,-0.0
360,2009,-0.0
361,2009,-0.0
362,2009,-0.0
363,2009,-0.0
364,2009,-0.0
365,2009,0.9182958340544896
366,2009,-0.0
367,2009,-0.0
368,2009,-0.0
369,2009,-0.0
370,2009,-0.0
371,2009,-0.0
372,2009,-0.0
373,2009,-0.0
374,2009,-0.0
375,2009,-0.0
376,2009,-0.0
377,2009,-0.0
378,2009,-0.0
379,2009,-0.0
380,2009,-0.0
381,2009,-0.0
382,2009,-0.0
383,2009,-0.0
384,2009,-0.0
385,2009,-0.0
386,2009,-0.0
387,2009,-0.0
388,2009,-0.0
389,2009,-0.0
390,2009,-0.0
391,2009,-0.0
392,2009,-0.0
393,2009,-0.0
394,2009,-0.0
395,2009,-0.0
396,2009,-0.0
397,2009,0.21084230031853213
398,2009,-0.0
399,2009,-0.0
400,2009,-0.0
401,2009,-0.0
402,2009,-0.0
403,2009,-0.0
404,2009,-0.0
405,2009,-0.0
406,2009,-0.0
407,2009,-0.0
408,2009,-0.0
409,2010,-0.0
410,2010,-0.0
411,2010,-0.0
412,2010,-0.0
413,2010,-0.0
414,2010,-0.0
415,2010,-0.0
416,2010,-0.0
417,2010,-0.0
418,2010,-0.0
419,2010,-0.0
420,2010,-0.0
421,2010,-0.0
422,2010,-0.0
423,2010,-0.0
424,2010,-0.0
425,2010,-0.0
426,2010,-0.0
427,2010,-0.0
428,2010,-0.0
429,2010,-0.0
430,2010,-0.0
431,2010,-0.0
432,2010,-0.0
433,2010,-0.0
434,2010,-0.0
435,2010,-0.0
436,2010,-0.0
437,2010,-0.0
438,2010,-0.0
439,2010,-0.0
440,2010,-0.0
441,2010,-0.0
442,2010,-0.0
443,2010,-0.0
444,2010,-0.0
445,2010,-0.0
446,2010,-0.0
447,2010,-0.0
448,2010,-0.0
449,2010,-0.0
450,2010,0.2580186686648155
451,2010,-0.0
452,2010,-0.0
453,2010,-0.0
454,2010,-0.0
455,2010,1.0
456,2010,-0.0
457,2010,-0.0
458,2010,-0.0
459,2010,-0.0
460,2010,-0.0
461,2010,-0.0
462,2010,-0.0
463,2010,-0.0
464,2010,-0.0
465,2010,-0.0
466,2010,-0.0
467,2010,-0.0
468,2010,-0.0
469,2010,-0.0
470,2010,-0.0
471,2010,-0.0
472,2010,-0.0
473,2010,1.457142325169523
474,2010,-0.0
475,2010,-0.0
476,2010,-0.0
477,2010,-0.0
478,2010,-0.0
479,2011,-0.0
480,2011,-0.0
481,2011,-0.0
482,2011,-0.0
483,2011,-0.0
484,2011,-0.0
485,2011,-0.0
486,2011,-0.0
487,2011,0.9182958340544896
488,2011,-0.0
489,2011,-0.0
490,2011,-0.0
491,2011,0.16616768382527533
492,2011,-0.0
493,2011,-0.0
494,2011,0.6292492238560345
495,2011,-0.0
496,2011,-0.0
497,2011,-0.0
498,2011,-0.0
499,2011,-0.0
500,2011,-0.0
501,2011,-0.0
502,2011,-0.0
503,2011,-0.0
504,2011,-0.0
505,2011,-0.0
506,2011,-0.0
507,2011,0.9709505944546686
508,2011,-0.0
509,2011,-0.0
510,2011,-0.0
511,2011,-0.0
512,2011,-0.0
513,2011,-0.0
514,2011,-0.0
515,2011,-0.0
516,2011,-0.0
517,2011,-0.0
518,2011,-0.0
519,2011,-0.0
520,2011,-0.0
521,2011,-0.0
522,2011,-0.0
523,2011,-0.0
524,2011,-0.0
525,2011,-0.0
526,2011,-0.0
527,2011,-0.0
528,2011,-0.0
529,2011,-0.0
530,2011,-0.0
531,2011,-0.0
532,2011,-0.0
533,2011,-0.0
534,2011,-0.0
535,2011,-0.0
536,2011,-0.0
537,2011,-0.0
538,2011,-0.0
539,2011,-0.0
540,2011,-0.0
541,2011,-0.0
542,2011,-0.0
543,2011,-0.0
544,2011,-0.0
545,2011,-0.0
546,2011,-0.0
547,2011,-0.0
548,2011,-0.0
549,2011,-0.0
550,2011,-0.0
551,2011,-0.0
552,2011,-0.0
553,2011,-0.0
554,2011,-0.0
555,2011,-0.0
556,2011,-0.0
557,2011,-0.0
558,2011,-0.0
559,2011,-0.0
560,2011,-0.0
561,2011,-0.0
562,2011,-0.0
563,2011,-0.0
564,2012,-0.0
565,2012,-0.0
566,2012,-0.0
567,2012,-0.0
568,2012,-0.0
569,2012,-0.0
570,2012,-0.0
571,2012,-0.0
572,2012,-0.0
573,2012,-0.0
574,2012,-0.0
575,2012,-0.0
576,2012,-0.0
577,2012,-0.0
578,2012,-0.0
579,2012,-0.0
580,2012,-0.0
581,2012,-0.0
582,2012,-0.0
583,2012,-0.0
584,2012,-0.0
585,2012,-0.0
586,2012,-0.0
587,2012,-0.0
588,2012,-0.0
589,2012,-0.0
590,2012,-0.0
591,2012,-0.0
592,2012,1.2904697760191755
593,2012,0.5666082287886923
594,2012,-0.0
595,2012,-0.0
596,2012,-0.0
597,2012,0.3246141810128147
598,2012,-0.0
599,2012,-0.0
600,2012,-0.0
601,2012,-0.0
602,2012,-0.0
603,2012,-0.0
604,2012,-0.0
605,2012,-0.0
606,2012,-0.0
607,2012,-0.0
608,2012,-0.0
609,2012,1.0
610,2012,-0.0
611,2012,-0.0
612,2012,-0.0
613,2012,-0.0
614,2012,-0.0
615,2012,-0.0
616,2012,-0.0
617,2012,-0.0
618,2012,-0.0
619,2012,-0.0
620,2012,-0.0
621,2012,-0.0
622,2012,-0.0
623,2012,-0.0
624,2012,-0.0
625,2012,-0.0
626,2012,-0.0
627,2012,-0.0
628,2012,-0.0
629,2012,-0.0
630,2012,-0.0
631,2012,-0.0
632,2012,-0.0
633,2012,-0.0
634,2012,-0.0
635,2012,-0.0
636,2012,-0.0
637,2012,-0.0
638,2012,-0.0
639,2012,-0.0
640,2012,0.03964314068195012
641,2012,0.19590927087360493
642,2012,-0.0
643,2012,-0.0
644,2012,-0.0
645,2012,-0.0
646,2012,-0.0
647,2012,-0.0
648,2012,-0.0
649,2012,-0.0
650,2012,-0.0
651,2012,-0.0
652,2012,-0.0
653,2012,-0.0
654,2012,-0.0
655,2012,-0.0
656,2012,-0.0
657,2012,-0.0
658,2012,-0.0
659,2012,-0.0
660,2012,-0.0
661,2012,-0.0
662,2012,-0.0
663,2012,-0.0
664,2012,-0.0
665,2012,-0.0
666,2012,-0.0
667,2012,-0.0
668,2012,-0.0
669,2012,-0.0
670,2012,-0.0
671,2012,-0.0
672,2012,-0.0
673,2012,-0.0
674,2012,-0.0
675,2012,-0.0
676,2012,-0.0
677,2012,-0.0
678,2012,-0.0
679,2012,-0.0
680,2012,-0.0
681,2012,-0.0
682,2012,-0.0
683,2012,-0.0
684,2012,-0.0
685,2012,-0.0
686,2013,0.4164208870620124
687,2013,-0.0
688,2013,-0.0
689,2013,0.18384425122040202
690,2013,-0.0
691,2013,-0.0
692,2013,-0.0
693,2013,-0.0
694,2013,-0.0
695,2013,0.041125624368577904
696,2013,0.10786725419292562
697,2013,-0.0
698,2013,0.10559103637519526
699,2013,-0.0
700,2013,-0.0
701,2013,-0.0
702,2013,-0.0
703,2013,-0.0
704,2013,-0.0
705,2013,-0.0
706,2013,-0.0
707,2013,-0.0
708,2013,-0.0
709,2013,-0.0
710,2013,0.03856099133459408
711,2013,-0.0
712,2013,0.8112781244591328
713,2013,-0.0
714,2013,-0.0
715,2013,-0.0
716,2013,-0.0
717,2013,-0.0
718,2013,-0.0
719,2013,-0.0
720,2013,-0.0
721,2013,-0.0
722,2013,-0.0
723,2013,-0.0
724,2013,-0.0
725,2013,-0.0
726,2013,0.013812020584753996
727,2013,0.21084230031853213
728,2013,-0.0
729,2013,-0.0
730,2013,-0.0
731,2013,-0.0
732,2013,-0.0
733,2013,-0.0
734,2013,-0.0
735,2013,-0.0
736,2013,-0.0
737,2013,-0.0
738,2013,0.13686972874394202
739,2013,-0.0
740,2013,-0.0
741,2013,-0.0
742,2013,-0.0
743,2013,-0.0
744,2013,-0.0
745,2013,-0.0
746,2013,-0.0
747,2013,-0.0
748,2013,-0.0
749,2013,-0.0
750,2013,-0.0
751,2013,-0.0
752,2013,-0.0
753,2013,-0.0
754,2013,-0.0
755,2013,-0.0
756,2013,-0.0
757,2013,-0.0
758,2013,0.12139692031042587
759,2013,-0.0
760,2013,-0.0
761,2013,-0.0
762,2013,-0.0
763,2013,-0.0
764,2013,-0.0
765,2013,-0.0
766,2013,-0.0
767,2013,-0.0
768,2013,-0.0
769,2013,-0.0
770,2013,-0.0
771,2013,-0.0
772,2013,-0.0
773,2013,-0.0
774,2013,-0.0
775,2013,-0.0
776,2013,-0.0
777,2013,-0.0
778,2013,-0.0
779,2013,-0.0
780,2013,-0.0
781,2013,-0.0
782,2013,-0.0
783,2013,-0.0
784,2013,-0.0
785,2013,-0.0
786,2013,-0.0
787,2013,-0.0
788,2013,-0.0
789,2013,-0.0
790,2013,-0.0
791,2013,-0.0
792,2013,-0.0
793,2013,-0.0
794,2013,-0.0
795,2013,-0.0
796,2013,-0.0
797,2013,-0.0
798,2013,-0.0
799,2013,-0.0
800,2013,-0.0
801,2013,-0.0
802,2013,-0.0
803,2013,-0.0
804,2013,-0.0
805,2013,-0.0
806,2013,-0.0
807,2013,-0.0
808,2013,-0.0
809,2013,-0.0
810,2013,-0.0
811,2013,-0.0
812,2013,-0.0
813,2013,-0.0
814,2013,-0.0
815,2013,-0.0
816,2013,-0.0
817,2013,-0.0
818,2013,-0.0
819,2013,-0.0
820,2013,-0.0
821,2013,-0.0
822,2013,-0.0
823,2013,-0.0
824,2013,-0.0
825,2013,-0.0
826,2013,-0.0
827,2013,-0.0
828,2013,-0.0
829,2013,-0.0
830,2013,-0.0
831,2013,-0.0
832,2013,-0.0
833,2013,-0.0
834,2013,-0.0
835,2013,-0.0
836,2013,-0.0
837,2013,-0.0
838,2013,-0.0
839,2013,-0.0
840,2013,-0.0
841,2013,0.4394969869215134
842,2013,-0.0
843,2013,-0.0
844,2013,-0.0
845,2013,-0.0
846,2013,-0.0
847,2013,-0.0
848,2013,-0.0
849,2013,-0.0
850,2013,-0.0
851,2013,-0.0
852,2013,-0.0
853,2013,-0.0
854,2013,0.15690018790217855
855,2013,-0.0
856,2013,-0.0
857,2013,-0.0
858,2013,-0.0
859,2013,-0.0
860,2013,-0.0
861,2013,-0.0
862,2013,-0.0
863,2013,-0.0
864,2013,-0.0
865,2013,-0.0
866,2013,-0.0
867,2013,-0.0
868,2013,-0.0
869,2013,-0.0
870,2013,-0.0
871,2013,-0.0
872,2013,-0.0
873,2013,-0.0
874,2013,-0.0
875,2013,-0.0
876,2013,-0.0
877,2013,-0.0
878,2013,-0.0
879,2013,-0.0
880,2013,-0.0
881,2013,-0.0
882,2013,-0.0
883,2013,-0.0
884,2013,-0.0
885,2013,-0.0
886,2013,-0.0
887,2013,-0.0
888,2013,-0.0
889,2013,-0.0
890,2014,0.02307626875367982
891,2014,-0.0
892,2014,0.8112781244591328
893,2014,0.025104355337080317
894,2014,-0.0
895,2014,-0.0
896,2014,-0.0
897,2014,-0.0
898,2014,-0.0
899,2014,-0.0
900,2014,-0.0
901,2014,-0.0
902,2014,-0.0
903,2014,-0.0
904,2014,-0.0
905,2014,-0.0
906,2014,-0.0
907,2014,0.1201399980294217
908,2014,-0.0
909,2014,-0.0
910,2014,-0.0
911,2014,-0.0
912,2014,-0.0
913,2014,-0.0
914,2014,-0.0
915,2014,0.15447187696187273
916,2014,-0.0
917,2014,-0.0
918,2014,1.1774948241243839
919,2014,0.023554852291116514
920,2014,-0.0
921,2014,-0.0
922,2014,0.11711899925562623
923,2014,-0.0
924,2014,-0.0
925,2014,-0.0
926,2014,-0.0
927,2014,-0.0
928,2014,-0.0
929,2014,-0.0
930,2014,-0.0
931,2014,0.04262043798061551
932,2014,0.1603576900573196
933,2014,-0.0
934,2014,0.06628217932183386
935,2014,-0.0
936,2014,-0.0
937,2014,-0.0
938,2014,-0.0
939,2014,-0.0
940,2014,-0.0
941,2014,-0.0
942,2014,-0.0
943,2014,-0.0
944,2014,-0.0
945,2014,0.37123232664087563
946,2014,-0.0
947,2014,-0.0
948,2014,-0.0
949,2014,-0.0
950,2014,-0.0
951,2014,-0.0
952,2014,-0.0
953,2014,-0.0
954,2014,-0.0
955,2014,-0.0
956,2014,-0.0
957,2014,-0.0
958,2014,-0.0
959,2014,-0.0
960,2014,1.0
961,2014,-0.0
962,2014,-0.0
963,2014,-0.0
964,2014,-0.0
965,2014,-0.0
966,2014,-0.0
967,2014,-0.0
968,2014,-0.0
969,2014,-0.0
970,2014,-0.0
971,2014,-0.0
972,2014,-0.0
973,2014,-0.0
974,2014,-0.0
975,2014,-0.0
976,2014,-0.0
977,2014,-0.0
978,2014,-0.0
979,2014,-0.0
980,2014,-0.0
981,2014,-0.0
982,2014,-0.0
983,2014,-0.0
984,2014,-0.0
985,2014,-0.0
986,2014,-0.0
987,2014,0.5033265605773798
988,2014,-0.0
989,2014,-0.0
990,2014,-0.0
991,2014,-0.0
992,2014,0.356993457433548
993,2014,-0.0
994,2014,-0.0
995,2014,-0.0
996,2014,-0.0
997,2014,-0.0
998,2014,0.15190807773688197
999,2014,-0.0
1000,2014,-0.0
1001,2014,-0.0
1002,2014,-0.0
1003,2014,-0.0
1004,2014,-0.0
1005,2014,-0.0
1006,2014,-0.0
1007,2014,-0.0
1008,2014,-0.0
1009,2014,-0.0
1010,2014,-0.0
1011,2014,-0.0
1012,2014,-0.0
1013,2014,-0.0
1014,2014,-0.0
1015,2014,-0.0
1016,2014,-0.0
1017,2014,-0.0
1018,2014,-0.0
1019,2014,-0.0
1020,2014,-0.0
1021,2014,-0.0
1022,2014,-0.0
1023,2014,-0.0
1024,2014,-0.0
1025,2014,-0.0
1026,2014,-0.0
1027,2014,-0.0
1028,2014,-0.0
1029,2014,-0.0
1030,2014,-0.0
1031,2014,-0.0
1032,2014,-0.0
1033,2014,-0.0
1034,2014,-0.0
1035,2014,-0.0
1036,2014,-0.0
1037,2014,-0.0
1038,2014,-0.0
1039,2014,-0.0
1040,2014,-0.0
1041,2014,-0.0
1042,2014,-0.0
1043,2014,-0.0
1044,2014,-0.0
1045,2014,-0.0
1046,2014,-0.0
1047,2014,-0.0
1048,2014,-0.0
1049,2014,-0.0
1050,2014,-0.0
1051,2014,-0.0
1052,2014,-0.0
1053,2014,-0.0
1054,2014,-0.0
1055,2014,-0.0
1056,2014,-0.0
1057,2014,-0.0
1058,2014,-0.0
1059,2014,-0.0
1060,2014,-0.0
1061,2014,-0.0
1062,2014,-0.0
1063,2014,-0.0
1064,2014,-0.0
1065,2014,-0.0
1066,2014,-0.0
1067,2014,-0.0
1068,2015,-0.0
1069,2015,-0.0
1070,2015,-0.0
1071,2015,0.09362545803956356
1072,2015,0.04200921572779111
1073,2015,-0.0
1074,2015,0.07288553854898903
1075,2015,-0.0
1076,2015,-0.0
1077,2015,-0.0
1078,2015,1.7143305050396018
1079,2015,-0.0
1080,2015,-0.0
1081,2015,-0.0
1082,2015,-0.0
1083,2015,-0.0
1084,2015,-0.0
1085,2015,-0.0
1086,2015,0.043588095738005976
1087,2015,-0.0
1088,2015,-0.0
1089,2015,-0.0
1090,2015,-0.0
1091,2015,-0.0
1092,2015,-0.0
1093,2015,-0.0
1094,2015,-0.0
1095,2015,0.10262656276561669
1096,2015,-0.0
1097,2015,-0.0
1098,2015,-0.0
1099,2015,-0.0
1100,2015,-0.0
1101,2015,0.494122388476545
1102,2015,-0.0
1103,2015,0.9370852683984274
1104,2015,-0.0
1105,2015,-0.0
1106,2015,-0.0
1107,2015,0.12394986771100759
1108,2015,-0.0
1109,2015,-0.0
1110,2015,-0.0
1111,2015,-0.0
1112,2015,-0.0
1113,2015,-0.0
1114,2015,-0.0
1115,2015,0.048640895125949844
1116,2015,-0.0
1117,2015,-0.0
1118,2015,-0.0
1119,2015,-0.0
1120,2015,0.6454495903301855
1121,2015,0.14670757489574285
1122,2015,-0.0
1123,2015,-0.0
1124,2015,-0.0
1125,2015,-0.0
1126,2015,-0.0
1127,2015,-0.0
1128,2015,-0.0
1129,2015,-0.0
1130,2015,-0.0
1131,2015,-0.0
1132,2015,-0.0
1133,2015,-0.0
1134,2015,-0.0
1135,2015,-0.0
1136,2015,-0.0
1137,2015,-0.0
1138,2015,-0.0
1139,2015,-0.0
1140,2015,1.0
1141,2015,-0.0
1142,2015,0.7805959049533975
1143,2015,-0.0
1144,2015,-0.0
1145,2015,-0.0
1146,2015,-0.0
1147,2015,-0.0
1148,2015,-0.0
1149,2015,-0.0
1150,2015,-0.0
1151,2015,-0.0
1152,2015,-0.0
1153,2015,-0.0
1154,2015,-0.0
1155,2015,-0.0
1156,2015,-0.0
1157,2015,-0.0
1158,2015,-0.0
1159,2015,-0.0
1160,2015,-0.0
1161,2015,-0.0
1162,2015,-0.0
1163,2015,-0.0
1164,2015,-0.0
1165,2015,-0.0
1166,2015,-0.0
1167,2015,-0.0
1168,2015,-0.0
1169,2015,-0.0
1170,2015,-0.0
1171,2015,-0.0
1172,2015,-0.0
1173,2015,-0.0
1174,2015,-0.0
1175,2015,-0.0
1176,2015,-0.0
1177,2015,-0.0
1178,2015,-0.0
1179,2015,-0.0
1180,2015,-0.0
1181,2015,-0.0
1182,2015,-0.0
1183,2015,-0.0
1184,2015,-0.0
1185,2015,-0.0
1186,2015,-0.0
1187,2015,-0.0
1188,2015,-0.0
1189,2015,-0.0
1190,2015,-0.0
1191,2015,-0.0
1192,2015,-0.0
1193,2015,-0.0
1194,2015,-0.0
1195,2015,-0.0
1196,2015,-0.0
1197,2015,-0.0
1198,2015,0.5058965995866734
1199,2015,-0.0
1200,2015,-0.0
1201,2015,-0.0
1202,2015,-0.0
1203,2015,-0.0
1204,2015,-0.0
1205,2015,-0.0
1206,2015,-0.0
1207,2015,-0.0
1208,2015,-0.0
1209,2015,-0.0
1210,2015,-0.0
1211,2015,-0.0
1212,2015,-0.0
1213,2015,-0.0
1214,2015,-0.0
1215,2015,-0.0
1216,2015,-0.0
1217,2015,0.4689955935892812
1218,2015,-0.0
1219,2015,-0.0
1220,2015,-0.0
1221,2015,-0.0
1222,2015,1.0
1223,2015,-0.0
1224,2015,-0.0
1225,2015,-0.0
1226,2015,-0.0
1227,2015,-0.0
1228,2015,-0.0
1229,2015,-0.0
1230,2015,-0.0
1231,2015,-0.0
1232,2015,-0.0
1233,2015,-0.0
1234,2015,0.8112781244591328
1235,2015,-0.0
1236,2015,-0.0
1237,2015,-0.0
1238,2015,1.0
1239,2015,-0.0
1240,2015,-0.0
1241,2015,-0.0
1242,2015,-0.0
1243,2015,-0.0
1244,2015,-0.0
1245,2015,0.9182958340544896
1246,2015,-0.0
1247,2015,-0.0
1248,2015,-0.0
1249,2015,-0.0
1250,2015,-0.0
1251,2015,-0.0
1252,2015,-0.0
1253,2015,-0.0
1254,2015,-0.0
1255,2015,-0.0
1256,2015,-0.0
1257,2015,-0.0
1258,2015,-0.0
1259,2015,-0.0
1260,2015,-0.0
1261,2015,-0.0
1262,2015,-0.0
1263,2015,-0.0
1264,2015,-0.0
1265,2015,-0.0
1266,2015,-0.0
1267,2015,-0.0
1268,2015,-0.0
1269,2015,-0.0
1270,2016,0.018818215413928332
1271,2016,-0.0
1272,2016,0.03917004989026181
1273,2016,-0.0
1274,2016,-0.0
1275,2016,0.013490994710181845
1276,2016,-0.0
1277,2016,-0.0
1278,2016,0.1485494904303482
1279,2016,-0.0
1280,2016,0.13402979616803595
1281,2016,-0.0
1282,2016,-0.0
1283,2016,-0.0
1284,2016,-0.0
1285,2016,-0.0
1286,2016,-0.0
1287,2016,-0.0
1288,2016,0.11181081312366688
1289,2016,-0.0
1290,2016,0.03326585160432314
1291,2016,-0.0
1292,2016,-0.0
1293,2016,-0.0
1294,2016,-0.0
1295,2016,-0.0
1296,2016,-0.0
1297,2016,-0.0
1298,2016,-0.0
1299,2016,-0.0
1300,2016,0.26676498780302604
1301,2016,-0.0
1302,2016,-0.0
1303,2016,0.9709505944546686
1304,2016,-0.0
1305,2016,-0.0
1306,2016,1.0
1307,2016,-0.0
1308,2016,-0.0
1309,2016,-0.0
1310,2016,-0.0
1311,2016,-0.0
1312,2016,-0.0
1313,2016,-0.0
1314,2016,-0.0
1315,2016,-0.0
1316,2016,-0.0
1317,2016,-0.0
1318,2016,-0.0
1319,2016,-0.0
1320,2016,-0.0
1321,2016,-0.0
1322,2016,-0.0
1323,2016,-0.0
1324,2016,-0.0
1325,2016,0.9578293335895698
1326,2016,-0.0
1327,2016,-0.0
1328,2016,-0.0
1329,2016,0.6931331918858383
1330,2016,-0.0
1331,2016,-0.0
1332,2016,-0.0
1333,2016,-0.0
1334,2016,-0.0
1335,2016,-0.0
1336,2016,-0.0
1337,2016,-0.0
1338,2016,-0.0
1339,2016,-0.0
1340,2016,-0.0
1341,2016,-0.0
1342,2016,-0.0
1343,2016,-0.0
1344,2016,-0.0
1345,2016,-0.0
1346,2016,-0.0
1347,2016,-0.0
1348,2016,-0.0
1349,2016,-0.0
1350,2016,-0.0
1351,2016,-0.0
1352,2016,-0.0
1353,2016,1.773842844318993
1354,2016,-0.0
1355,2016,-0.0
1356,2016,-0.0
1357,2016,-0.0
1358,2016,-0.0
1359,2016,-0.0
1360,2016,-0.0
1361,2016,-0.0
1362,2016,-0.0
1363,2016,-0.0
1364,2016,-0.0
1365,2016,-0.0
1366,2016,-0.0
1367,2016,-0.0
1368,2016,-0.0
1369,2016,-0.0
1370,2016,-0.0
1371,2016,-0.0
1372,2016,-0.0
1373,2016,-0.0
1374,2016,-0.0
1375,2016,-0.0
1376,2016,-0.0
1377,2016,-0.0
1378,2016,-0.0
1379,2016,-0.0
1380,2016,-0.0
1381,2016,-0.0
1382,2016,-0.0
1383,2016,-0.0
1384,2016,-0.0
1385,2016,-0.0
1386,2016,-0.0
1387,2016,-0.0
1388,2016,-0.0
1389,2016,-0.0
1390,2016,-0.0
1391,2016,-0.0
1392,2016,-0.0
1393,2016,-0.0
1394,2016,-0.0
1395,2016,-0.0
1396,2016,-0.0
1397,2016,-0.0
1398,2016,-0.0
1399,2016,-0.0
1400,2016,-0.0
1401,2016,-0.0
1402,2016,-0.0
1403,2016,-0.0
1404,2016,-0.0
1405,2016,-0.0
1406,2016,-0.0
1407,2016,-0.0
1408,2016,-0.0
1409,2016,-0.0
1410,2016,1.093488862746132
1411,2016,-0.0
1412,2016,-0.0
1413,2016,-0.0
1414,2016,-0.0
1415,2016,-0.0
1416,2016,-0.0
1417,2016,-0.0
1418,2016,-0.0
1419,2016,-0.0
1420,2016,-0.0
1421,2016,-0.0
1422,2016,-0.0
1423,2016,-0.0
1424,2016,-0.0
1425,2016,-0.0
1426,2016,-0.0
1427,2016,-0.0
1428,2016,-0.0
1429,2016,-0.0
1430,2016,-0.0
1431,2016,-0.0
1432,2016,-0.0
1433,2016,-0.0
1434,2016,-0.0
1435,2016,-0.0
1436,2016,-0.0
1437,2016,-0.0
1438,2016,-0.0
1439,2016,-0.0
1440,2016,-0.0
1441,2016,-0.0
1442,2016,-0.0
1443,2016,-0.0
1444,2016,-0.0
1445,2016,-0.0
1446,2016,-0.0
1447,2016,-0.0
1448,2016,-0.0
1449,2016,-0.0
1450,2016,-0.0
1451,2016,-0.0
1452,2016,-0.0
1453,2016,-0.0
1454,2016,-0.0
1455,2016,-0.0
1456,2016,-0.0
1457,2016,-0.0
1458,2016,-0.0
1459,2016,-0.0
1460,2016,-0.0
1461,2016,-0.0
1462,2016,-0.0
1463,2016,-0.0
1464,2016,-0.0
1465,2016,-0.0
1466,2016,-0.0
1467,2016,-0.0
1468,2016,-0.0
1469,2016,-0.0
1470,2016,-0.0
1471,2016,-0.0
1472,2016,-0.0
1473,2016,-0.0
1474,2016,-0.0
1475,2016,-0.0
1476,2016,-0.0
1477,2016,-0.0
1478,2016,-0.0
1479,2016,-0.0
1480,2016,-0.0
1481,2016,-0.0
1482,2016,-0.0
1483,2016,-0.0
1484,2016,-0.0
1485,2016,-0.0
1486,2016,-0.0
1487,2016,-0.0
1488,2016,-0.0
1489,2016,-0.0
1490,2016,-0.0
1491,2016,-0.0
1492,2016,0.13362380283893205
1493,2016,-0.0
1494,2016,-0.0
1495,2016,-0.0
1496,2016,-0.0
1497,2016,-0.0
1498,2016,-0.0
1499,2016,-0.0
1500,2016,-0.0
1501,2016,-0.0
1502,2016,-0.0
1503,2016,-0.0
1504,2016,-0.0
1505,2016,-0.0
1506,2016,-0.0
1507,2016,-0.0
1508,2017,-0.0
1509,2017,-0.0
1510,2017,0.05362478502181615
1511,2017,0.018760579169770017
1512,2017,0.02353929811841871
1513,2017,-0.0
1514,2017,-0.0
1515,2017,-0.0
1516,2017,-0.0
1517,2017,-0.0
1518,2017,-0.0
1519,2017,-0.0
1520,2017,-0.0
1521,2017,-0.0
1522,2017,-0.0
1523,2017,-0.0
1524,2017,-0.0
1525,2017,-0.0
1526,2017,-0.0
1527,2017,0.049562227506372084
1528,2017,-0.0
1529,2017,-0.0
1530,2017,-0.0
1531,2017,0.5916727785823275
1532,2017,-0.0
1533,2017,-0.0
1534,2017,0.06268265300135281
1535,2017,0.1276251933853551
1536,2017,-0.0
1537,2017,-0.0
1538,2017,-0.0
1539,2017,-0.0
1540,2017,-0.0
1541,2017,-0.0
1542,2017,-0.0
1543,2017,-0.0
1544,2017,-0.0
1545,2017,-0.0
1546,2017,-0.0
1547,2017,-0.0
1548,2017,-0.0
1549,2017,0.6193821946787638
1550,2017,-0.0
1551,2017,-0.0
1552,2017,-0.0
1553,2017,-0.0
1554,2017,-0.0
1555,2017,-0.0
1556,2017,-0.0
1557,2017,-0.0
1558,2017,0.042728071141132404
1559,2017,-0.0
1560,2017,-0.0
1561,2017,-0.0
1562,2017,-0.0
1563,2017,-0.0
1564,2017,-0.0
1565,2017,0.7219280948873623
1566,2017,-0.0
1567,2017,-0.0
1568,2017,-0.0
1569,2017,-0.0
1570,2017,0.06766982525198403
1571,2017,-0.0
1572,2017,-0.0
1573,2017,-0.0
1574,2017,-0.0
1575,2017,-0.0
1576,2017,-0.0
1577,2017,-0.0
1578,2017,-0.0
1579,2017,-0.0
1580,2017,-0.0
1581,2017,-0.0
1582,2017,-0.0
1583,2017,-0.0
1584,2017,-0.0
1585,2017,-0.0
1586,2017,-0.0
1587,2017,-0.0
1588,2017,-0.0
1589,2017,-0.0
1590,2017,-0.0
1591,2017,-0.0
1592,2017,-0.0
1593,2017,-0.0
1594,2017,-0.0
1595,2017,-0.0
1596,2017,-0.0
1597,2017,-0.0
1598,2017,-0.0
1599,2017,-0.0
1600,2017,-0.0
1601,2017,-0.0
1602,2017,-0.0
1603,2017,-0.0
1604,2017,-0.0
1605,2017,-0.0
1606,2017,-0.0
1607,2017,-0.0
1608,2017,-0.0
1609,2017,-0.0
1610,2017,-0.0
1611,2017,-0.0
1612,2017,-0.0
1613,2017,-0.0
1614,2017,-0.0
1615,2017,-0.0
1616,2017,-0.0
1617,2017,-0.0
1618,2017,-0.0
1619,2017,-0.0
1620,2017,-0.0
1621,2017,-0.0
1622,2017,-0.0
1623,2017,-0.0
1624,2017,-0.0
1625,2017,-0.0
1626,2017,-0.0
1627,2017,-0.0
1628,2017,-0.0
1629,2017,-0.0
1630,2017,-0.0
1631,2017,-0.0
1632,2017,-0.0
1633,2017,-0.0
1634,2017,-0.0
1635,2017,-0.0
1636,2017,-0.0
1637,2017,-0.0
1638,2017,-0.0
1639,2017,-0.0
1640,2017,-0.0
1641,2017,-0.0
1642,2017,-0.0
1643,2017,-0.0
1644,2017,-0.0
1645,2017,-0.0
1646,2017,-0.0
1647,2017,-0.0
1648,2017,-0.0
1649,2017,-0.0
1650,2017,-0.0
1651,2017,-0.0
1652,2017,-0.0
1653,2017,-0.0
1654,2017,-0.0
1655,2017,-0.0
1656,2017,-0.0
1657,2017,-0.0
1658,2017,-0.0
1659,2017,-0.0
1660,2017,-0.0
1661,2017,-0.0
1662,2017,-0.0
1663,2017,-0.0
1664,2017,-0.0
1665,2017,-0.0
1666,2017,-0.0
1667,2017,-0.0
1668,2017,-0.0
1669,2017,0.6417229494625627
1670,2017,-0.0
1671,2017,-0.0
1672,2017,-0.0
1673,2017,-0.0
1674,2017,-0.0
1675,2017,-0.0
1676,2017,-0.0
1677,2017,-0.0
1678,2017,0.08728058888363333
1679,2017,-0.0
1680,2017,-0.0
1681,2017,-0.0
1682,2017,-0.0
1683,2017,-0.0
1684,2017,-0.0
1685,2017,-0.0
1686,2017,-0.0
1687,2017,-0.0
1688,2017,-0.0
1689,2017,-0.0
1690,2017,-0.0
1691,2017,-0.0
1692,2017,-0.0
1693,2017,-0.0
1694,2017,-0.0
1695,2017,-0.0
1696,2017,-0.0
1697,2017,-0.0
1698,2017,-0.0
